…
**q3** Process the `id` column of `df_pop` to create a `fips` column.

``` r
## TASK: Create a `fips` column by extracting the county code
df_q3 <- df_pop_select %>% 
  mutate(fips = substr(id,10,15))

df_q3
```

    ## # A tibble: 3,221 x 5
    ##    id             county   state   EstimatePopulation fips 
    ##    <chr>          <chr>    <chr>                <dbl> <chr>
    ##  1 0500000US01001 Autauga  Alabama              55200 01001
    ##  2 0500000US01003 Baldwin  Alabama             208107 01003
    ##  3 0500000US01005 Barbour  Alabama              25782 01005
    ##  4 0500000US01007 Bibb     Alabama              22527 01007
    ##  5 0500000US01009 Blount   Alabama              57645 01009
    ##  6 0500000US01011 Bullock  Alabama              10352 01011
    ##  7 0500000US01013 Butler   Alabama              20025 01013
    ##  8 0500000US01015 Calhoun  Alabama             115098 01015
    ##  9 0500000US01017 Chambers Alabama              33826 01017
    ## 10 0500000US01019 Cherokee Alabama              25853 01019
    ## # ... with 3,211 more rows
…
    ## [1] TRUE

``` r
print("Very good!")
```

    ## [1] "Very good!"

``` r
df_q3
```

    ## # A tibble: 3,221 x 5
    ##    id             county   state   EstimatePopulation fips 
    ##    <chr>          <chr>    <chr>                <dbl> <chr>
    ##  1 0500000US01001 Autauga  Alabama              55200 01001
    ##  2 0500000US01003 Baldwin  Alabama             208107 01003
    ##  3 0500000US01005 Barbour  Alabama              25782 01005
    ##  4 0500000US01007 Bibb     Alabama              22527 01007
    ##  5 0500000US01009 Blount   Alabama              57645 01009
    ##  6 0500000US01011 Bullock  Alabama              10352 01011
    ##  7 0500000US01013 Butler   Alabama              20025 01013
    ##  8 0500000US01015 Calhoun  Alabama             115098 01015
    ##  9 0500000US01017 Chambers Alabama              33826 01017
    ## 10 0500000US01019 Cherokee Alabama              25853 01019
    ## # ... with 3,211 more rows
…
``` r
## TASK: Find the top 10 max cases_perk counties; report populations as well
df_normalized %>% 
  group_by(county,state) %>% 
  summarise(max_cases_perk = max(cases_perk), population = max(population)) %>% 
  ungroup() %>% 
  arrange(desc(max_cases_perk))# %>% 
```

    ## `summarise()` regrouping output by 'county' (override with `.groups` argument)

    ## # A tibble: 2,442 x 4
    ##    county        state     max_cases_perk population
    ##    <chr>         <chr>              <dbl>      <dbl>
    ##  1 Trousdale     Tennessee         16547.       9573
    ##  2 Lake          Tennessee         11095.       7526
    ##  3 Lafayette     Florida           10704.       8744
    ##  4 Lee           Arkansas           9587.       9398
    ##  5 Dakota        Nebraska           9544.      20317
    ##  6 Lincoln       Arkansas           9419.      13695
    ##  7 Chicot        Arkansas           8489.      10826
    ##  8 Nobles        Minnesota          8164.      21839
    ##  9 Chattahoochee Georgia            7523.      10767
    ## 10 Colfax        Nebraska           6571.      10760
    ## # ... with 2,432 more rows
…
